<?xml version="1.0" encoding="utf-8"?>
<!-- Generator: Adobe Illustrator 18.1.1, SVG Export Plug-In . SVG Version: 6.00 Build 0)  -->
<svg version="1.1" id="Layer_1" xmlns="http://www.w3.org/2000/svg" xmlns:xlink="http://www.w3.org/1999/xlink" x="0px" y="0px"
	 width="45px" height="45px" viewBox="463 535.5 45 45" enable-background="new 463 535.5 45 45" xml:space="preserve">
<g>
	<path fill="#525353" d="M508,552.2V552l-4.3-4.4l-1.6-6l-6.1-1.6l-4.3-4.3l-0.1-0.1l-6.1,1.6l-5.8-1.6h-0.1l-4.4,4.4l-5.9,1.5h-0.1
		l-1.6,6.2L463,552l1.6,6l-1.6,5.8v0.1l4.4,4.4l1.6,6l6.1,1.6l4.3,4.3l0.1,0.1l6.1-1.6l5.8,1.6h0.1l4.4-4.4l5.8-1.6h0.1l1.6-6
		l4.3-4.3l0.1-0.1l-1.6-6L508,552.2z M507.4,552.2l-1.2,4.6l-2.2-7.8L507.4,552.2z M505.9,557.9l-2.7,10.1l-7.4,7.4l-10.1,2.7
		l-10.1-2.7l-7.4-7.4l-2.7-10.1l2.7-10.1l7.4-7.4l10.1-2.7l10.1,2.7l7.4,7.4L505.9,557.9z M501.6,542.1l1.2,4.6l-5.8-5.8
		L501.6,542.1z M491.5,536.3l3.2,3.2l-7.8-2.1L491.5,536.3z M479.8,536.3l4.6,1.2l-7.9,2L479.8,536.3z M469.6,542.1l4.6-1.2
		l-5.8,5.8L469.6,542.1z M463.9,552.2l3.2-3.4l-2.2,7.8L463.9,552.2z M463.9,563.8l1.2-4.6l2,7.8L463.9,563.8z M469.6,573.9
		l-1.2-4.6l5.8,5.8L469.6,573.9z M479.8,579.7l-3.4-3.4l7.8,2.1L479.8,579.7z M491.5,579.7l-4.6-1.2l7.8-2.1L491.5,579.7z
		 M501.6,573.9l-4.6,1.2l5.8-5.8L501.6,573.9z M507.4,563.8l-3.4,3.4l2.2-7.8L507.4,563.8z"/>
	<path fill="#525353" d="M487.2,544.2c-0.3-0.3-0.5-0.4-0.8-0.5c-0.7-0.1-1.3,0-1.9,0.5l-13.1,13.3c-0.7,0.7-0.7,1.9,0,2.7l3,3
		c0.7,0.7,1.9,0.7,2.7,0l4.9-5v12.2c0,1.1,0.8,1.9,1.9,1.9h4.2c1.1,0,1.9-0.8,1.9-1.9v-12.2l4.9,5c0.7,0.7,1.9,0.7,2.7,0l3-3
		c0.7-0.7,0.7-1.9,0-2.7L487.2,544.2z M499.8,559.7l-3,3c-0.4,0.4-1.2,0.4-1.6,0l-6.1-6.2v14c0,0.7-0.5,1.2-1.2,1.2h-4.2
		c-0.7,0-1.2-0.5-1.2-1.2v-13.8l-6.1,6.2c-0.4,0.4-1.2,0.4-1.6,0l-3-3.1c-0.4-0.5-0.4-1.2,0-1.7l13.1-13.3c0.3-0.3,0.8-0.4,1.2-0.3
		c0.1,0,0.4,0.1,0.5,0.3l13.1,13.3C500.2,558.5,500.2,559.3,499.8,559.7z"/>
</g>
</svg>
